[01:23:14] <strong>Record</strong> #1
[01:23:14] <strong>ERROR</strong> : Content, title, and excerpt are empty.
[01:23:14] <strong>Record</strong> #2
[01:23:14] <strong>ERROR</strong> : Content, title, and excerpt are empty.
[01:23:14] <strong>Record</strong> #3
[01:23:14] <strong>ERROR</strong> : Content, title, and excerpt are empty.
[01:23:14] <strong>Record</strong> #4
[01:23:14] <strong>ERROR</strong> : Content, title, and excerpt are empty.
[01:23:14] <strong>Record</strong> #5
[01:23:14] <strong>ERROR</strong> : Content, title, and excerpt are empty.
[01:23:14] <strong>Record</strong> #6
[01:23:14] <strong>ERROR</strong> : Content, title, and excerpt are empty.
[01:23:14] <strong>Record</strong> #7
[01:23:14] <strong>ERROR</strong> : Content, title, and excerpt are empty.
[01:23:14] <strong>Record</strong> #8
[01:23:14] <strong>ERROR</strong> : Content, title, and excerpt are empty.
[01:23:14] <strong>Record</strong> #9
[01:23:14] <strong>ERROR</strong> : Content, title, and excerpt are empty.
[01:23:14] <strong>Record</strong> #10
[01:23:14] <strong>ERROR</strong> : Content, title, and excerpt are empty.
[01:23:14] <strong>Record</strong> #11
[01:23:14] <strong>ERROR</strong> : Content, title, and excerpt are empty.
[01:23:14] <strong>Record</strong> #12
[01:23:14] <strong>ERROR</strong> : Content, title, and excerpt are empty.
[01:23:14] <strong>Record</strong> #13
[01:23:14] <strong>ERROR</strong> : Content, title, and excerpt are empty.
[01:23:14] <strong>Record</strong> #14
[01:23:14] <strong>ERROR</strong> : Content, title, and excerpt are empty.
[01:23:14] <strong>Record</strong> #15
[01:23:14] <strong>ERROR</strong> : Content, title, and excerpt are empty.
[01:23:14] <strong>Record</strong> #16
[01:23:14] <strong>ERROR</strong> : Content, title, and excerpt are empty.
[01:23:14] <strong>Record</strong> #17
[01:23:14] <strong>ERROR</strong> : Content, title, and excerpt are empty.
[01:23:14] <strong>Record</strong> #18
[01:23:14] <strong>ERROR</strong> : Content, title, and excerpt are empty.
[01:23:14] <strong>Record</strong> #19
[01:23:14] <strong>ERROR</strong> : Content, title, and excerpt are empty.
[01:23:14] <strong>Record</strong> #20
[01:23:14] <strong>ERROR</strong> : Content, title, and excerpt are empty.
[01:23:15] <strong>Record</strong> #21
[01:23:15] <strong>ERROR</strong> : Content, title, and excerpt are empty.
[01:23:15] <strong>Record</strong> #22
[01:23:15] <strong>ERROR</strong> : Content, title, and excerpt are empty.
[01:23:15] <strong>Record</strong> #23
[01:23:15] <strong>ERROR</strong> : Content, title, and excerpt are empty.
[01:23:15] <strong>Record</strong> #24
[01:23:15] <strong>ERROR</strong> : Content, title, and excerpt are empty.
[01:23:15] <strong>Record</strong> #25
[01:23:15] <strong>ERROR</strong> : Content, title, and excerpt are empty.
[01:23:15] <strong>Record</strong> #26
[01:23:15] <strong>ERROR</strong> : Content, title, and excerpt are empty.
[01:23:15] <strong>Record</strong> #27
[01:23:15] <strong>ERROR</strong> : Content, title, and excerpt are empty.
[01:23:15] <strong>Record</strong> #28
[01:23:15] <strong>ERROR</strong> : Content, title, and excerpt are empty.
[01:23:15] <strong>Record</strong> #29
[01:23:15] <strong>ERROR</strong> : Content, title, and excerpt are empty.
[01:23:15] <strong>Record</strong> #30
[01:23:15] <strong>ERROR</strong> : Content, title, and excerpt are empty.
[01:23:15] <strong>Record</strong> #31
[01:23:15] <strong>ERROR</strong> : Content, title, and excerpt are empty.
[01:23:15] <strong>Record</strong> #32
[01:23:15] <strong>ERROR</strong> : Content, title, and excerpt are empty.
[01:23:15] <strong>Record</strong> #33
[01:23:15] <strong>ERROR</strong> : Content, title, and excerpt are empty.
[01:23:15] <strong>Record</strong> #34
[01:23:15] <strong>ERROR</strong> : Content, title, and excerpt are empty.
[01:23:15] <strong>Record</strong> #35
[01:23:15] <strong>ERROR</strong> : Content, title, and excerpt are empty.
[01:23:15] <strong>Record</strong> #36
[01:23:15] <strong>ERROR</strong> : Content, title, and excerpt are empty.
[01:23:15] <strong>Record</strong> #37
[01:23:15] <strong>ERROR</strong> : Content, title, and excerpt are empty.
[01:23:15] <strong>Record</strong> #38
[01:23:15] <strong>ERROR</strong> : Content, title, and excerpt are empty.
[01:23:15] <strong>Record</strong> #39
[01:23:15] <strong>ERROR</strong> : Content, title, and excerpt are empty.
[01:23:15] <strong>Record</strong> #40
[01:23:15] <strong>ERROR</strong> : Content, title, and excerpt are empty.
[01:23:15] <strong>Record</strong> #41
[01:23:15] <strong>ERROR</strong> : Content, title, and excerpt are empty.
[01:23:15] <strong>Record</strong> #42
[01:23:15] <strong>ERROR</strong> : Content, title, and excerpt are empty.
[01:23:15] <strong>Record</strong> #43
[01:23:15] <strong>ERROR</strong> : Content, title, and excerpt are empty.
[01:23:15] <strong>Record</strong> #44
[01:23:15] <strong>ERROR</strong> : Content, title, and excerpt are empty.
[01:23:15] <strong>Record</strong> #45
[01:23:15] <strong>ERROR</strong> : Content, title, and excerpt are empty.
[01:23:15] <strong>Record</strong> #46
[01:23:15] <strong>ERROR</strong> : Content, title, and excerpt are empty.
[01:23:15] <strong>Record</strong> #47
[01:23:15] <strong>ERROR</strong> : Content, title, and excerpt are empty.
[01:23:15] <strong>Record</strong> #48
[01:23:15] <strong>ERROR</strong> : Content, title, and excerpt are empty.
[01:23:15] <strong>Record</strong> #49
[01:23:15] <strong>ERROR</strong> : Content, title, and excerpt are empty.
[01:23:15] <strong>Record</strong> #50
[01:23:15] <strong>ERROR</strong> : Content, title, and excerpt are empty.
[01:23:15] <strong>Record</strong> #51
[01:23:15] <strong>ERROR</strong> : Content, title, and excerpt are empty.
[01:23:15] <strong>Record</strong> #52
[01:23:15] <strong>ERROR</strong> : Content, title, and excerpt are empty.
[01:23:15] <strong>Record</strong> #53
[01:23:15] <strong>ERROR</strong> : Content, title, and excerpt are empty.
[01:23:15] <strong>Record</strong> #54
[01:23:15] <strong>ERROR</strong> : Content, title, and excerpt are empty.
[01:23:15] <strong>Record</strong> #55
[01:23:15] <strong>ERROR</strong> : Content, title, and excerpt are empty.
[01:23:15] <strong>Record</strong> #56
[01:23:15] <strong>ERROR</strong> : Content, title, and excerpt are empty.
[01:23:15] <strong>Record</strong> #57
[01:23:15] <strong>ERROR</strong> : Content, title, and excerpt are empty.
[01:23:15] <strong>Record</strong> #58
[01:23:15] <strong>ERROR</strong> : Content, title, and excerpt are empty.
[01:23:15] <strong>Record</strong> #59
[01:23:15] <strong>ERROR</strong> : Content, title, and excerpt are empty.
[01:23:15] <strong>Record</strong> #60
[01:23:15] <strong>ERROR</strong> : Content, title, and excerpt are empty.
[01:23:15] <strong>Record</strong> #61
[01:23:15] <strong>ERROR</strong> : Content, title, and excerpt are empty.
[01:23:15] <strong>Record</strong> #62
[01:23:15] <strong>ERROR</strong> : Content, title, and excerpt are empty.
