"post_title","ID","post_content","post_excerpt","post_date","post_name","post_author","post_status","featured_image","post_format","comment_status","ping_status","post_category","post_tag","alerts","avada_post_views_count","fusion_builder_status","pyre_display_copyright","pyre_display_footer","pyre_display_header","pyre_displayed_menu","pyre_full_width","pyre_header_bg_full","pyre_header_bg_repeat","pyre_image_rollover_icons","pyre_page_bg_full","pyre_page_bg_layout","pyre_page_bg_repeat","pyre_page_title","pyre_page_title_bar_bg_full","pyre_page_title_bg_parallax","pyre_page_title_text","pyre_related_posts","pyre_sidebar_position","pyre_slider_position","pyre_slider_type","pyre_transparent_header","pyre_wide_page_bg_full","pyre_wide_page_bg_repeat","sbg_selected_sidebar","sbg_selected_sidebar_2","sbg_selected_sidebar_2_replacement","sbg_selected_sidebar_replacement","triggers"
"Hello world!","1","<!-- wp:paragraph -->
<p>Welcome to WordPress. This is your first post. Edit or delete it, then start writing!</p>
<!-- /wp:paragraph -->",,"2020-06-04 23:55:32","hello-world","boni","publish",,,"open","open","Uncategorised",,,,,,,,,,,,,,,,,,,,,,,,,,,,,,,
"What is Debt Help?","382","<p class=""style14"">Many people don't believe that it is possible to be totally debt free, but it is a realistic goal. In order to reduce the burden of debt in your life, make a plan to become debt free and work towards your goal.</p>
<p class=""style14"">Debt is probably one of the biggest concerns that people face financially. It is an unnecessary burden that can ruin people’s mental and physical health. Studies show that debt is an increasing cause of worry among adults, both young and old, and the toll that it can take is tremendous. If the repercussions of being in debt are so stressful why are people not making use of this debt help to clear their debts?</p>

<h2 class=""style17"">Debt Help</h2>
<p class=""style14"">Debt help is a somewhat ambiguous term that refers to refinancing or debt consolidation and to certain other services that are geared to clear your debts such as a debt agreement. Debt help, as it implies, may not exist in the sense that we are led to believe because it is not a total forgiveness of debt. What debt help does is assist you to repay your way out of debt, either on your own or with government assistance.</p>

<h3 class=""style14""><span class=""style17"">Debt Consolidation to Clear Your Debts </span></h3>
<p class=""style14"">It is possible to put goals in place to clear your debts once and for all. Firstly, you have to make a commitment to yourself with regard to your finances. Do not allow debt to control how you live. Controlling debt may be hard to do, but it can be done if you are serious about it and with the assistance of a trusted debt solution provider.</p>
<p class=""style14"">You should create a budget that allows you to live within your financial means. If you are not good at budgeting or sticking to a budget, get some professional help. There are people who can help you structure your debt in a way to eventually eliminate it. But remember, there is no instant gratification and it may take a while, maybe a few years, depending on how much debt you have.
Learn to live as frugal as possible. This means finding ways to decrease your bills and by finding other areas where you can reduce your spending. Make it a personal goal not to create any new debt for your-self. If you need to buy something, save for it instead of charging it on a credit card.</p>

<h3 class=""style17"">Help Clear Your Debts</h3>
<p class=""style14"">If you are in a situation where you need help to clear your debts, you may feel as though you are alone, but rest assured you are not. Many people think they got into financial difficulty all by themselves so perhaps they should find their own way out. Seeking assistance to help clear your debt is not a weakness, but rather, a very smart financial move, that is only going to lead to a happier future.</p>
<p class=""style14"">It is always a good idea to look into debt consolidation services. Never be afraid to let your creditors know that your financial situation has changed and that you must look at ways to decrease your current debt load.</p>
<p class=""style14"">Many people find themselves under piles of bills and loans, and have no idea how they got there. There may have been a long line of mistakes that led you to this point, but finding help can be the turning point to a debt free and more secure future. Living with debt is never easy, but coming out the other side can be extremely rewarding.</p>
<p class=""style14"">Many find that their credit cards and personal loans are a huge problem, and you may wonder how things got so out of control. It is very easy to do, and it is often hard to break the cycle of spending that may have put you in the position of debt in the first place. One problem with these debts is that interest rates can be high, and payments that people can afford barely cover the monthly interest. That means the actual debt remains the same even when payments are being made.</p>

<h3 class=""style17"">Debt Consolidation Loan</h3>
<p class=""style14"">A debt consolidation loan can help with clearing your debts by consolidating high interest rate accounts into one account with a lower and more affordable interest rate. This makes paying off money owed a little bit easier. The debt won’t be paid off yet, but the solution is at hand.</p>
<p class=""style14"">There are a number of debt consolidation companies that help with this problem, and they have helped many find their way out of their debts.</p>
<p class=""style14"">Anyone thinking of finding debt relief through a debt consolidation loan should take some time to figure out exactly how much they owe and who they owe it to. This can be hard to gather bills and notices however it can help speed up the process once you contact your debt consolidation provider. Our company will be able to give you a free consultation over the phone and asses your budget requirements and repayments necessary to clear your debts.</p>
<p class=""style14"">If you are currently crippled with debt it is important to realise that another loan, regardless of the interest rate, may not be the best solution for you in the long term. Debt consolidation loans can be good for clearing credit cards and personal loans but many providers will require some form of security (such as your home or car) in order to give you a debt consolidation loan. If you do not have security but need a way to clear your debts a debt agreement is another option worth considering.</p>

<h3 class=""style17"">Debt Agreement</h3>
<p class=""style14"">Debt agreements were reintroduced to the market in 2007 by the Australian Government to assist people who are facing serious financial difficulty and may be heading towards bankruptcy.</p>
<p class=""style14"">A debt agreement is an arrangement made between you and all of the people you owe money to. This will result in an arrangement of what you can afford to pay back on a monthly basis and subject to your creditors approval you will then repay your debts. Not everyone meets the criteria for a debt agreement but your debt agreement provider will be able to asses your situation and advise you on whether or not you qualify. Otherwise you can look up more information on debt agreements on the Australian Financial Security Authority website by<strong> <a href=""https://www.afsa.gov.au/insolvency/i-cant-pay-my-debts/what-debt-agreement"" target=""_blank"" rel=""noopener noreferrer"">clicking here</a>.</strong></p>
<p class=""style14"">Topics Covered: <strong><a class=""font_orange01"" title=""Debt Agreement"" href=""/debt-agreements/debt-agreement/"">Debt Agreement</a>, <a class=""font_orange01"" title=""Debt"" href=""http://australiandebtagreements.com.au/"">Debt</a>, <a class=""font_orange01"" title=""Debt Consolidation"" href=""http://australiandebtagreements.com.au/debt-consolidation/"">Debt Consolidation</a>, <a class=""font_orange01"" title=""Debt Consolidation Loans"" href=""http://australiandebtagreements.com.au/"">Debt Consolidation Loan</a>, <a class=""font_orange01"" href=""http://www.australianlendingcentre.com.au/"">Debt Help</a>, <a class=""font_orange01"" title=""FAQ"" href=""http://australiandebtagreements.com.au/faq/"">Debt Agreement FAQ</a></strong>, and<strong> <a class=""font_orange01"" title=""Clear your debts"" href=""http://www.australiandebtagreements.com.au/"">Clearing Your Debts</a>.</strong></p>",,"2014-09-10 00:00:00","debt-help","diane","publish",,,"open","open","Debt Help",,,"267","inactive","default","default","yes","default","no","no","repeat","linkzoom","no","default","repeat","default","default","default","yes","default","default","default","no","default","no","repeat","0","0",,"Top Mobile Buttons",
"Staying Out of Debt","383","<p class=""style14"">You recognise that you need help to clear your debts?</p>
<p class=""style14"">Whether Australian Debt Agreements is the right company for you or not, there are a few things you should be aware of when looking for assistance with clearing your debts.</p>

<h2><span class=""style17"">Clear Your Debts</span></h2>
<p class=""style14"">Australian Debt Agreements has helped many Australians to address their debts by assessing their current situation and coming up with a tailor made plan to alleviate their debt problems. We have a number of debt solution products available for our many debtors differing needs.</p>
<p class=""style14"">Once we have put a plan in place to help clear your debts, you now have a responsibility to your-self not to let your debts get out of control again. Many people get themselves in debt because an unexpected incident occurs, this may be a separation, a medical issue a death in the family or even loss of income.</p>
<p class=""style14"">There are a number of people who who are in debt through a gradual process of overspending. The past few years have been easier than ever for consumers to get access to credit. Personal loans, store cards, credit cards and overdrafts have been sanctioned at a higher rate than ever before.</p>
<p class=""style14"">A good way to get your finances back in order is to contact a debt solution company for assistance.
Whilst this will help clear your debt, there are a few things that you have to do to make sure you do not go into debt again.</p>

<h2 class=""style19"">Stay Out of Debt</h2>
<p class=""style14"">Staying out of debt means a change in lifestyle, but consider it a change for the best. You may have to go without some things, but you will also have less debt and a clear conscious. Once you have help with your debt, you need to ensure that you are never in that position again.</p>
<p class=""style14"">The first thing you have to do is assess your spending habits that may have gotten you into debt in the first place. Look at the money you spend and what you spend it on. Can you find ways to save money? If you buy coffee every morning, get a coffee maker and a travel mug. It might not seem like much, but in the end small changes like that can really add up.</p>
<p class=""style14"">Next you have to look at everything you are paying for in your home. Have you financed a large screen television? Do you really need it? You may need someone to help you with this debt help reduction, but you can do it. Lastly, cut up your credit cards if you have not already done so, and throw away any offers that may come in the mail. When you are in the middle of getting debt help, the last thing that you should do is to open up a new account. This will teach you to live within your means, and not to follow what others do.</p>
<p class=""style14"">Topics Covered: <strong><a class=""font_orange01"" title=""Debt Consolidation"" href=""http://australiandebtagreements.com.au/"">Debt Agreement</a></strong>, <strong><a class=""font_orange01"" title=""Debt Consolidation"" href=""/debt-consolidation/"">Debt</a></strong>,<strong> <a class=""font_orange01"" title=""Debt Consolidation"" href=""/debt-consolidation/"">Debt Help</a></strong>, <strong><a class=""font_orange01"" title=""Debt Consolidation"" href=""/debt-consolidation/"">Clear Your Debts</a></strong>, <strong><a class=""font_orange01"" title=""Debt Consolidation"" href=""/debt-consolidation/"">Stay out of Debt</a></strong>. <strong><a class=""font_orange01"" title=""Debt consolidation"" href=""http://australiandebtagreements.com.au/"">Debt Consolidation</a></strong>. <strong><a class=""font_orange01"" title=""Debt consolidation solutions"" href=""http://australiandebtagreements.com.au/"">Debt Consolidation Loan</a></strong></p>",,"2014-09-10 00:00:00","staying-debt","diane","publish",,,"open","open","Debt Solutions",,,"1005","inactive","default","default","yes","default","no","no","repeat","linkzoom","no","default","repeat","default","default","default","yes","default","default","default","no","default","no","repeat","0","0",,"Top Mobile Buttons",
"The Research Proves It – Debt Agreements Work!","384","<p class=""style14"">The Australian Financial Security Authority (AFSA) recently conducted research with people who entered debt agreements under AFSA’s latest debt agreement system introduced in July 2007. What did they find? They found that debt agreements achieve the goal that AFSA set out to accomplish – to help Australians address their unmanageable debt and to better manage both their personal finances and household budget. In fact, 91% of people reported that their debt agreement helped them gain control over their debts and nearly 87% said it both assisted in managing household expenditure and to pay the household bills.</p>
 
<p class=""style14"">The research confirms that Australian Debt Agreements has achieved one of its own goals, as it reveals that more people are now far better informed about debt agreements than in the past and that accurate budgeting has allowed people to more easily meet their agreed repayments to settle their debts.</p>
 
<p class=""style14"">Another encouraging outcome of the survey is a realisation that the debt agreement industry has matured, and that increasing numbers of people are happy with their debt agreement administrators – something Australian Debt Agreements can confirm. AFSA continues to work closely with Australian Debt Agreements to ensure that people experiencing financial difficulty are put onto the right track to solve their financial concerns.</p>
 
<h2 class=""style14"">More proof that Debt Agreements Work!</h2>
<p class=""style14"">Another positive piece of news to come from the survey for those wanting to apply for a debt agreement is reports of increased confidence from creditors regarding the administration of debt agreements throughout Australia. Australian Debt Agreements places a significant amount of energy into building strong relationships with debtors based on trust and by doing so, we have found that more and more people have been comfortable with full disclosure of their problems as they are genuinely interested in getting out of debt and avoiding bankruptcy. Australian Debt Agreements has been able to provide accurate household budgets that help ensure that all debtors have the ability to pay towards their proposal whilst at the same time, have enough cash left over each week for other household expenses.</p>
 
<p class=""style14"">AFSA reports that the number of people lodging debt agreements in Australia is increasing and that debt agreements now represent 20% of the total personal insolvency activity in Australia. As the global financial crisis extends its reach throughout the country, entering a debt agreement has become a more common approach to managing spiraling interest repayments and unmanageable debt and will continue to do so.</p>
 
<p class=""style14"">For more information about how a debt agreement can assist you, contact Australian Debt Agreements by either <strong>filling out the <a title=""Enquire Now"" href=""/enquire/"">enquiry form </a></strong> or by calling <strong><a title=""1300 123 328"" href=""tel:0297981580"">02 9798 1580</a></strong> today.</p>
 
<p class=""style14"">Topics Covered: <strong><a class=""font_orange01"" title=""Debt Agreement"" href=""/debt-agreements/debt-agreement/"">Debt Agreement</a></strong>, <strong><a class=""font_orange01"" title=""Debt Consolidation"" href=""/debt-consolidation/"">Debt Consolidation</a></strong>, <strong><a class=""font_orange01"" title=""Debt Consolidation Loans"" href=""http://www.australianlendingcentre.com.au/"">Debt Consolidation Loan</a></strong>, <strong><a class=""font_orange01"" title=""Debt Consolidation"" href=""/debt-consolidation/"">Clear Your Debts</a></strong>, <strong><a class=""font_orange01"" title=""ITSA"" href=""https://www.afsa.gov.au/"" target=""_blank"" rel=""noopener noreferrer"">AFSA</a></strong>.</p>",,"2014-09-10 00:00:00","research-proves-debt-agreements-work","diane","publish",,,"open","open","Debt Agreement",,,"1325","inactive","default","default","yes","default","no","no","repeat","linkzoom","no","default","repeat","default","default","default","yes","default","default","default","no","default","no","repeat","0","0",,"Top Mobile Buttons",
"Aussie Families Struggle with Debt","385","<p class=""style14""> One of Australia’s biggest reporting agencies says the global financial downturn is still hurting people, with 1 in 6 Australians finding themselves having to struggle with debt.</p>
Veda Advantage says a fair 20% of those in debt are actually looking for additional credit to help pay off their existing debts. In these tough economic times Australians have really felt it hit their pockets.

The survey conducted by Veda comes at a time when a growing number of economists are starting to think that the worst of the global downturn is coming to an end. However there continues to be a segment of society that is still doing it tough - this could also be associated with the now larger unemployment rate.

About 12% of Australians have missed a required minimum monthly payment on a credit contract in the past three months, some having missed at least 2 or more and may are looking for debt consolidation.

Of people with a mortgage, 13% were late paying a household bill in the same time frame. Nearly a quarter of those struggling to pay bills owe more now than they did a year ago.
<p class=""style14"">If you are struggling with debt, and would like to get out of debt now, a debt agreement may be the answer. Contact Australian Debt Agreements right away by phoning <strong><a title=""1300 123 328"" href=""tel:1300123328"">1300 123 328</a></strong> or fill in the<strong> <a title=""Enquire Now"" href=""/enquire/"">Enquiry form</a></strong></p>
<p class=""style14"">Topics Covered: <strong><a class=""font_orange01"" title=""Debt Agreement"" href=""/debt-agreements/debt-agreement/"">Debt Agreement</a></strong>, <strong><a class=""font_orange01"" title=""Debt Consolidation"" href=""/debt-consolidation/"">Debt Consolidation</a></strong>, <strong><a class=""font_orange01"" href=""http://www.australianlendingcentre.com.au/"">Debt Consolidation Loans</a></strong>, <strong><a class=""font_orange01"" title=""Debt Consolidation"" href=""/debt-consolidation/"">Clear Your Debts</a></strong></p>",,"2014-09-10 00:00:00","aussie-families-struggle-debt","diane","publish",,,"open","open","Debt Agreement",,,"1753","inactive","default","default","yes","default","no","no","repeat","linkzoom","no","default","repeat","default","default","default","yes","default","default","default","no","default","no","repeat","0","0",,"Top Mobile Buttons",
"One Third of Australians Would Not Survive Unemployment","386","<p class=""style14"">More than one third of Australians would not survive unemployment on their savings longer than one month if they were to loose their job a recent survey by debt collection agency Dun and Bradstreet has shown.</p>
<p class=""style14"">The survey examined plans for saving, credit use, spending and debt in the coming three months. Many Australians are unprepared for financial hardships associated with being made redundant or sacked.</p>
<p class=""style14"">Four in ten people said that their saving would only last them 30 days whilst being unemployed, while 38% said they would have to use credit cards to cover household expenses such as bills and groceries.</p>
<p class=""style14"">The main demographic of Aussies who would mostly struggle are those aged between 18 and 49 years, earning $30,000 to $60,000 a year. This is quite a large demographic of people who are first home buyers. They are just managing on their mortgage repayments in these unusually low interest rate times, but if they were to unforeseeably loose their jobs, they would find themselves behind in their repayments and struggling to pay their debts - bills and living expenses.</p>
<p class=""style14"">This would likely see the amount of debt this age group is in rapidly increase and they may end up defaulting on their loans or worse, facing potential bankruptcy.</p>
<p class=""style14"">To prevent the stress of an uncertain future, get a hold of your financial situation now, while you’re employed and able to save. If you are already finding yourself drowning in repayments and debt we may have a debt consolidation option tailored to your situation.</p>
<p class=""style14"">If you have debts of $10,000 or more, don’t wait another minute. Pick up the phone and call us today on <strong><a title=""1300 123 328"" href=""tel:1300123328"">1300 123 328</a></strong> and receive a free debt assessment with one of our debt agreement consultants.</p>
 
<p class=""style14"">Topics Covered: <a class=""font_orange01"" title=""Debt Agreement"" href=""/debt-agreements/debt-agreement/"">Debt Agreement</a>, <a class=""font_orange01"" title=""Debt Consolidation"" href=""/debt-consolidation/"">Debt Consolidation</a>, <a class=""font_orange01"" title=""Debt Consolidation"" href=""/debt-consolidation/"">Clear Your Debts</a>, <a class=""font_orange01"" title=""Avoid Bankruptcy"" href=""/avoid-bankruptcy/""> Bankruptcy</a></p>",,"2014-09-10 00:00:00","one-third-australians-survive-unemployed","diane","publish",,,"open","open","Debt Help",,,"1279","inactive","default","default","yes","default","no","no","repeat","linkzoom","no","default","repeat","default","default","default","yes","default","default","default","no","default","no","repeat","0","0",,"Top Mobile Buttons",
"Young Australians Spending Habits Deepening Debt","387","In a world where credit accounts are far too easy to acquire, it is not surprising that younger generations have obtained more debt than they can afford. According to the Australian Social Trends, 2014 report published by the Bureau of Statistics, the average household debt load is an incredible $80,000. Specifically for those between the ages of 16 to 25, debt to income ratios are at all time highs.

On average, younger generations are carrying forward debt balances in excess of $2500 each month, but only earning an average of $791 per week. This creates a grim picture of future financial success for Generations X and Y if a shift in focus to a life beyond debt does not take place.
<h2>Crippling Credit Card Debt</h2>
In order for younger generations to move away from a crippling level of debt, it is important to understand the implications of carrying debt balances into the future. Credit cards have a high cost – more so than personal loans or mortgages – as the interest charged each month on outstanding balances makes being debt free unfathomable.

Paying the minimums on credit accounts means that little to no progress is made toward paying off a debt in full, especially if more debt is being added each month. Younger generations should understand these critical aspects of borrowing, and the total cost they are required to pay back over time.
<h3>Credit Card Debt Help</h3>
If you fall within the category of borrowers who are having difficulty keeping up with monthly debt payments, it may be time to seek credit card debt help. There are a number of possibilities available to those who may be in this boat, including debt consolidation loans and debt agreements.

Consolidation loans allow debtors to combine most or all of their credit accounts into one loan, typically with a lower interest rate and more favorable repayment terms. This option can make credit card debt help easy by reducing the total cost of carrying debt and making payments much easier to manage month to month.
<h4>Debt Agreements Can Help</h4>
Debt agreements allow borrowers to enter into contracts with creditors that provide for frozen interest rates as well as fixed repayment terms, from one to five years. Debt agreements are best suited for those with outstanding debt totaling more than $10,000 and who are desperate for credit card debt help.

It is beneficial for younger generations to understand the implications of credit use, its cost, and its potential for growing out of control. It is also important to understand the options available when debt becomes difficult to manage. Implementing one of the strategies above can be powerful for those willing to make the commitment to living a life beyond debt.

To talk to someone about a debt agreement and see if it is the right solution for you call 1300 123 328 or <a title=""Enquire Now"" href=""/enquire/"">Enquire Now!</a>",,"2014-11-13 00:00:00","young-australians-spending-habits-deepening-debt","diane","publish",,,"open","open","Debt Help","credit card debt,credit card debt help,Debt Agreement,debt agreements,young australians debt",,"1126","inactive","default","default","yes","default",,"no","repeat","linkzoom","no","default","repeat","default","default","default","yes","default","default","default","no","default","no","repeat","0","0",,"Top Mobile Buttons",
"Australia Has a Debt Problem - Take Control with a Part IX Debt Agreement","389","Every year more and more Australians sink deeper into debt and many choose declaring bankruptcy over the alternative.  Surprisingly, not many people know there is a better option than declaring bankruptcy!

A part IX debt agreement is a fantastic option. When you file for bankruptcy you scar your credit for years. This in turn makes it very hard to borrow money and for a lender to trust you. It is time to get back in control of your finances and avoid declaring bankruptcy!
<h2>Why a Part IX Debt Agreement?</h2>
1.            With a part IX debt agreement handled correctly by your agreement administrator the interest on your debt is frozen. This is what kills people in debt, the interest just keeps piling up and they sink deeper and deeper into debt. Without a real plan anyone in debt can drown in interest and end up declaring bankruptcy.

2.            You don't have to negotiate with your creditors because you have an agreement administrator that will handle negotiations and communications for you. It can be quite a pain to be dealing directly with your creditors, they know you are not an expert in this field and they have leverage against you. It’s best to leave the negotiating with your agreement administrator. They have the experience to handle your creditors and make the process easy for you.

3.            When you file for bankruptcy your credit record gets a mark. Another unfortunate consequence of filing for bankruptcy is that all your financial records will be in court and accessible to the public. When you choose to go into a part IX debt agreement your credit record will be affected slightly, but it is better than leaving it and hurting it further due to your unmanaged debt. It will be easier to rebound on your credit record if you don't have a rock bottom score.

4.            Struggling to make repayments is nothing new to Australian’s in debt. Repayment terms are always on the side of the creditors and it is too common of an occurrence to see struggling debtors. If you go into a part IX debt agreement you only pay a single regular repayment instead of juggling multiple repayments. Your debt agreement administrator will make sure that the creditors will give you a good deal considering this is already a bad debt and collection is their priority.
<h3>Part IX Debt Agreement before Declaring Bankruptcy</h3>
If you want to know more about the advantages of choosing a part IX debt agreement <a title=""Benefits of Debt Agreement"" href=""/debt-agreements/benefits-of-debt-agreement/"">check out how we can help!</a>",,"2014-11-20 00:00:00","take-control-with-a-part-ix-debt-agreement","diane","publish",,,"open","open","Avoiding Bankruptcy","avoid bankruptcy,Debt Agreement,debt problem,declaring bankruptcy,part ix debt agreement",,"1117","inactive","default","default","yes","default",,"no","repeat","linkzoom","no","default","repeat","default","default","default","yes","default","default","default","no","default","no","repeat","0","0",,"Top Mobile Buttons",
"Going Bankrupt – Consider the Alternative","391","When the debt obligations are mounting and creditors are continuously calling for payment, bankruptcy may seem like a viable option for some individuals. The act of going bankrupt takes place when you are unable to meet your repayment obligations on either all or a portion of the debt you owe – a trustee is appointed to take control of your assets in order to repay creditors either through a contractual agreement or by court order. Although this may sound like a way out of financial hardship, there are negative implications to going bankrupt, including loss of assets, a long-standing negative mark on your credit file, and the inability to get financing in the future. Instead of opting for bankruptcy, it is important to seek alternative options that may prove to be less detrimental in the long run.
<h3>Refinancing</h3>
In order to avoid bankruptcy, some individuals may be eligible to refinance their home in order to pay off other outstanding debts. If there is equity within your home, refinancing allows you, under specific circumstances, the ability to essentially trade one mortgage for another. This process can mean locking in a lower interest rate on the mortgage loan, and may provide for additional funds to be taken out. These funds can then be used to pay off higher interest rate debts that may be piling up.
<h3>Renegotiating debts with creditors</h3>
Instead of going bankrupt, individuals can renegotiate debts owed to creditors in order to pay less than the amount owed, or to reduce the monthly payment amount. If you have recently considered bankruptcy or are seeking bankruptcy help, contacting your creditors or having a professional do this on your behalf may be worthwhile. This can help you avoid going bankrupt, and reduce your repayment obligations without losing control of your financial situation.
<h3>Debt consolidation loan</h3>
A debt consolidation loan can be beneficial for those who qualify based on credit history and income thresholds, and works similarly to a mortgage refinance. This type of alternative to bankruptcy allows qualified individuals to take out a loan that will pay off other debts while providing a fixed repayment term as well as one manageable monthly payment.
<h3>Debt agreement</h3>
The last alternative to going bankrupt is utilising a debt agreement which allows you to enter into a debt settlement arrangement between yourself and creditors. Simply put, a debt agreement freezes the interest on eligible accounts and halts creditors from being able to take any legal action against you to force repayment. Debt agreements were created as an alternative to going bankrupt, so that individuals can have an affordable and the opportunity to bypass the harsh affects of bankruptcy.

If you are considering going bankrupt or are actively seeking bankruptcy help, it is beneficial to speak with a specialist who understands your unique situation and all of the alternatives available to you.",,"2014-12-15 00:00:00","going-bankrupt-consider-alternative","diane","publish",,,"open","open","Avoiding Bankruptcy","alternatives to bankruptcy,avoid bankruptcy,Debt Agreement,debt consolidation,going bankrupt,refinancing,renegotiating debts",,"1061","inactive","default","default","yes","default",,"no","repeat","linkzoom","no","default","repeat","default","default","default","yes","default","default","default","no","default","no","repeat","0","0",,"Blog Sidebar",
"Young Australians Need Help with Debt to Stay Afloat","393","There is a growing trend among Generation X and Y individuals in Australia – the use of credit far exceeds levels of income for the country’s youngest borrowers. With a shifting focus on using plastic instead of cash for purchases, coupled with a lacking degree of understanding as to how credit works and what it ultimately costs, twenty-somethings are struggling to keep up with their financial obligations and need help with debt.

According to a recent study conducted by <a href=""http://www.ratecity.com.au/media-room/generation-debt-y-australians-are-credit-crazy"" target=""_blank"" rel=""noopener noreferrer"">RateCity</a>, the average age to obtain a credit card for the first time is 20, as opposed to older generations where the average age was 34. Not surprisingly, the study also found that nearly 42% of young Australians (those under the age of 24) carry between $10,000 and $30,000 of personal debt which does not take into account a mortgage. As alarming as the amount of debt young Australians carry is the rate at which they are borrowing. The study also mentions that the same group of young borrowers is four times more likely to get cash through an advance on their credit cards than borrowers in older age groups. With such staggering statistics, it is clear that young Australians need help with debt in order to stay afloat with their finances.

Growing in popularity among the debt-ridden younger population is the option of a debt agreement. As offered through the Bankruptcy Act, debt agreements are contracts developed between the borrower and his or her creditors that detail a fixed repayment plan, typically with frozen interest rates and consistent payments from the borrower. The creditor is encouraged to accept payment of debt based on what the debtor can afford to pay each month, and take into consideration the borrower’s other financial obligation in relation to total income. As debt balances steadily increase among Generations X and Y, more borrowers are opting to negotiate with creditors through debt agreements in order to stay out of bankruptcy. Usually, young Australians who need help with debt are better off working with professionals who specialize in successful debt agreements than doing it alone.

Although entering into a debt agreement with creditors can steer a borrower clear of filing for bankruptcy, there are still credit consequences that can hinder future borrowing potential that individuals should be aware of. Entering into a debt agreement with a creditor will be reflected on a borrower’s credit file, through the National Personal Insolvency Index, and is listed for creditors and new lenders to view indefinitely. For this reason, even though it is superior to filing for bankruptcy, debt agreements should be used as a last resort for those debtors who are truly unable to payback their debt obligations and desperately need help with debt.",,"2014-12-29 00:00:00","young-australians-need-help-with-debt-stay-afloat","diane","publish",,,"open","open","Debt Help,Debt Agreement","avoid bankruptcy,Avoiding Bankruptcy,credit card debt help,Debt Agreement,Debt Help,help with debt,young australians debt",,"1204","inactive","default","default","yes","default",,"no","repeat","linkzoom","no","default","repeat","default","default","default","yes","default","default","default","no","default","no","repeat","0","0",,"Blog Sidebar",
"How To Save Money After The Holidays","395","The holiday season is an excellent time of the year – time with family and friends, attending or hosting parties, gift giving and extensive travel are typical holiday activities and we can all agree that these are, for the most part, enjoyable. Even so, the holidays can also put a damper on some individuals. With all these enjoyable activities also comes excessive spending and blown budgets, meaning the start to the year seems less than optimistic. Even if the financial goals that worked toward last year were set aside or completely ignored through the holiday season, there is light at the end of the financial tunnel. Here are some tips on how to save money for the upcoming year.
<h2>Mortgage or Loan Refinancing</h2>
If you are a homeowner, your mortgage is most likely the highest payment made each and every month, and it is a cost that cannot be avoided. In an effort to save money, though, a refinance could put dollars back in your wallet. The current interest rates are historically low which presents an opportunity for lower cost borrowing. If your credit history is good, you may be able to reduce the interest rate on your mortgage and ultimately, lower your monthly payment. If you do not own a home, refinancing for a lower rate can also be done on personal loans, helping you save money on total repayment and increasing your cash-flow each month.
<h2>Savings and Investments</h2>
Another tip on how to save money is directly related to setting money aside each month. That may sound counterintuitive, but saving for specific goals or major purchases helps reduce the possibility of adding to credit card balances which can quickly get expensive. If you know you are taking a long holiday or are purchasing a new car, start setting aside extra cash each month in a high yield savings account or a low-risk investment and use it for that intended goal only. In an effort to get ready for the 2015 holiday season, establish a separate savings account that is meant specifically for holiday gifts, parties and travel. This is a great tool in how to save money throughout the year.
<h2>Cut Excess Spending</h2>
The most important step in how to save money is establishing a realistic, but fluid budget. Once you have determined how much you have to spend each month, start to review what you may be able to cut out. A $5 latte each morning could be set aside for longer-term goals, and that cost savings will add up quickly. You can also set a specific budget for entertainment or clothing each month and be diligent about staying under that amount.

These smart tips on how to save money can be used any time throughout the year, but starting out 2015 with a clear financial agenda should help you from having regrets about your spending for the next holiday season.",,"2015-01-13 00:00:00","save-money-holidays","diane","publish",,,"open","open","Debt Solutions","budget tips,Debt Help,save money,savings,spend less",,"898","inactive","default","default","yes","default",,"no","repeat","linkzoom","no","default","repeat","default","default","default","yes","default","default","default","no","default","no","repeat","0","0",,"Blog Sidebar",
"More Australians choosing debt agreement over bankruptcy","397","During the last quarter of 2014, the Australian Financial Security Authority reported that personal insolvency incidents were down an astonishing 8.1 per cent compared to a year prior. This decline has been driven by a number of factors including lower unemployment rates leading to fewer financial hardships for Australian families and individuals. However, some still face issues with their credit management and due to multiple delinquencies or rapid changes in financial standing, they are in need of alternatives to clear their debt. In recent years, people have been choosing debt agreements over bankruptcy when they are seeking help getting out of deep credit problems.
<h2>Debt Agreement Over Bankruptcy</h2>
Debt agreements were introduced to the public in 1996 and are different to bankruptcy in a number of ways. First, a debt agreement is a formal agreement between the borrower and his or her creditors which provides alternative repayment terms that are meant to be more manageable to the borrower. Individuals who have struggled to keep up with debt obligations for an extended period of time are given the opportunity to enter into a debt agreement with their lenders. This agreement states that a certain amount will be repaid over time in order to clear the debt, and interest is frozen during that time frame. A debt agreement results in a much lower total amount repaid, and the remaining balance is written off by the creditors.

Many Australians struggling with their financial position are choosing a debt agreement over bankruptcy because it is viewed more favourably by future creditors as borrowers are assumed to have taken responsibility to pay back the debt owed. Additionally, although it is a formal act of declaring oneself insolvent, it does not bear the same consequences as bankruptcy. Instead, individuals who chose a debt agreement over bankruptcy are not restricted in travel as they would be with bankruptcy, nor is there a yearly assessment of income through a trustee. Also, a debt agreement does not require an individual to forfeit all rights to assets as would be the case in a bankruptcy filing.

Selecting a debt agreement over bankruptcy proves to be beneficial for borrowers who are in over their heads when it comes to repaying mountains of credit. Instead of the harsh consequences and long-term negative credit reporting that goes hand in hand with a bankruptcy filing, individuals utilizing a debt agreement can achieve a better result and clear their debt in a more positive manner.",,"2015-02-09 00:00:00","australians-choose-debt-agreement-over-bankruptcy","diane","publish",,,"open","open","Debt Agreement,Avoiding Bankruptcy","better results,clear debt,debt agreements",,"1035","inactive","default","default","yes","default",,"no","repeat","linkzoom","no","default","repeat","default","default","default","yes","default","default","default","no","default","no","repeat","0","0",,"Blog Sidebar",
"Interest Rate Cuts – Australians still need debt help","399","In a surprise move, the Reserve Bank of Australia reduced the benchmark interest rate in Australia recently, making it a historic low. The 2.25% interest rate decreased 0.25% amid concerns over the drastic shifts in oil prices in recent months and the need for an economic boost. Economists estimated that households would be able to save between $100 and $180 due to the reduction, giving some hope that consumer spending would increase, ultimately thwarting concerns of stagnation in the economy. Although some Australians are relieved with the interest rate cut, others are in need of a different kind of assistance – debt help.
<h2>Rising Prices Leading to More Debt</h2>
Over the last decade, the amount of revolving credit card debt as well as personal loan debt has steadily increased, despite consistent economic growth over the same period. While housing prices have also increased, income levels have remained nearly unchanged, putting some individuals and families in a hard to manage financial circumstance. According to Australian Bureau of Statistics, nearly 2 million Australians do not pay off credit card balances each month, representing 27 per cent of all credit card users. The interest rate on revolving debt is exponentially higher than that of housing debt or study debt, and as such can be nearly impossible to pay off when balances are not paid in full each billing cycle. No interest rate cuts have been made to credit card or personal loan debt, which would provide Australians the debt help they desperately need.

Instead, the interest rate reduction will be beneficial to those who either have little to no revolving debt or homeowners who have an opportunity to refinance or purchase a new residence at more cost effective rates. These individuals will have the opportunity to save on mortgage payments each month, allowing them to either save or spend the additional funds which both benefit future economic growth. However, for those families that are unable to keep up with outstanding debt payments where interest rates are at all-time highs, the recent interest rate cut will make little difference and will not provide for any type of help in the short or long run. Instead of a cut on lending rates for property, more individuals would benefit from debt help in the form of lower rates for other credit obligations.
<h3>Debt Help</h3>
Although lower interest rates can mean accumulated savings for homeowners or those with few other debt obligations each month, those struggling to keep up with repayment terms on other types of borrowing are not getting the help they need. Luckily Australian Debt Agreements helps everyday Australians get out of debt fast through <a title=""How debt agreements can help"" href=""/debt-agreements/how-a-debt-agreement-can-help/"">debt agreements</a> and get back in control of their finances. Contact <a title=""Australian Debt Agreements"" href=""/"">Australian Debt Agreements</a> today to find out how you can be free from debts quickly and efficiently.",,"2015-02-16 00:00:00","australians-still-need-debt-help-despite-cuts","diane","publish",,,"open","open","Debt Help","Debt Help,interest rate cuts,news",,"956","inactive","default","default","yes","default",,"no","repeat","linkzoom","no","default","repeat","default","default","default","yes","default","default","default","no","default","no","repeat","0","0",,"Blog Sidebar",
"Advantages of a Debt Agreement","401","If mounting debt is a problem that is growing exponentially and creditors are starting to take legal action against you then a debt agreement might be the best option to settle your debts. In this agreement, all current and pending legal action that is being taken to recover debts are suspended as soon as the proposal for a debt agreement is lodged and acceptance is processed by the AFSA. All legal action will be cancelled once the agreement is accepted by the creditors. The negotiation will take place between official administrators so you will not have to do it yourself and so you can rest assured that you will get the best result. The snowball effect of pending debt will stop when the legal action stops.
<h2>Debt Agreements</h2>
This type of agreement allows you to keep the secured debt such as the loans on your car and house so you can keep up appearances and the standard of living you are used to. As long as you keep making the payments on time then you will not have to go through the cost and hassle of changing your vehicle and home. Your family life can stay relatively the same and your family's budget will become much easier to manage because of deft relief.

Debt agreements are an excellent alternative to bankruptcy. There are less restrictions put in place on you and your finances with this option. Under this agreement, you will still be able to leave the country so you will not have to cancel plans to visit family abroad or do business out of the country. A bankruptcy can be devastating to your credit rating and a debt agreement will have less of an effect on your credit history so it will be easier to recover your credit rating. The creditors must come to an agreement about the payments of the debt and this will be more positive to future lenders instead of bankruptcy.

In the agreement, to pay back the lenders, the administrator will base your payments upon what you can pay, not what the lenders would want to have, so you are able to afford the payments and not go further in debt. The flexible payment plan will allow you to  keep paying your car loan, mortgage and any other secured loans. The regular single payments will replace the many payments and it will be based on what you can afford so that you can begin to get out of debt and make plans for the future.",,"2015-03-02 00:00:00","advantages-of-a-debt-agreement","diane","publish",,,"open","open","Debt Agreement","part 9 debt agreement,part ix debt agreement",,"1176","inactive","default","default","yes","default",,"no","repeat","linkzoom","no","default","repeat","default","default","default","yes","default","default","default","no","default","no","repeat","0","0",,"Blog Sidebar",
"Life after debt – live beyond debt with debt agreements","403","Credit cards and personal loans can be expensive ways to finance everyday living costs, but are difficult to avoid for most households. Major purchases can require some type of financing that put individuals into debt, and financial emergencies can come in a variety of forms at any time. Each of these common occurrences make managing money on an already tight budget a challenge. Living with debt can be a stressful experience when monthly payments have become too much of a strain on your income or if you have started to miss payments consistently. For those struggling with high interest credit card or personal loan debt, a debt agreement can provide a path to live beyond debt.
<h2>Debt agreements</h2>
A debt agreement is a formal arrangement established between you and your creditors that is meant to help you settle your outstanding debts in an affordable way. Entering into a debt agreement with creditors allows individuals and families a way to avoid the negative consequences of bankruptcy and work toward repayment of debts within a reasonable time frame. Debt agreements are offered to individuals who hold multiple debts like credit cards, personal loans, medical bills or merchant account debts that are unsecured and the debtor must be deemed insolvent to utilise a debt agreement.
<h2>Living beyond debt</h2>
There are specific benefits debt agreements provide to debtors that allow them to live beyond debt. First, you will only pay an agreed upon, fixed amount toward your debt that is manageable within your monthly budget. Creditors are also required to freeze the interest and any other charges assessed on your account each month while you are working on repayment. Once a debt agreement has been agreed upon between you and each of your creditors, no new legal action can be taken by your creditors in an effort to collect the debt. Additionally, all of your debt that is listed on a debt agreement is rolled into a single debt, creating one single payment toward the debts each month instead of multiple payments. In some cases, creditors will write off a substantial portion of your outstanding debt when accepting your debt agreement, making your total amount to be repaid over a shorter period of time.

Entering into a debt agreement can be a viable way to begin your life beyond debt with a sound mind. Individuals who completed debt agreements reported that they immediately felt more comfortable with their monthly repayments and experienced less stress as the calls from creditors subsided. Once the debt agreement is complete, individuals are able to start over and live a life beyond debt without the harsh consequences of bankruptcy.",,"2015-03-05 00:00:00","live-beyond-debt-with-debt-agreements","diane","publish",,,"open","open","Debt Agreement","avoid bankruptcy,debt agreements",,"2026","inactive","default","default","yes","default",,"no","repeat","linkzoom","no","default","repeat","default","default","default","yes","default","default","default","no","default","no","repeat","0","0",,"Blog Sidebar",
"Main causes of bankruptcy – Unemployment and Debts","405","In the last quarter of 2014, residents from the Sunshine Coast noted unemployment and the growing balances on credit cards as <a title=""Unemployment and credit debt main cause of bankruptcy"" href=""http://www.sunshinecoastdaily.com.au/news/bankruptcy-linked-to-unemployment/2560037/"" target=""_blank"" rel=""noopener noreferrer"">the main causes of bankruptcy</a>. When steady income is being earned and individuals are able to manage their monthly payments easily and on time, the use of credit through credit cards or personal loans is not a necessity. However, once a job is lost through unemployment and income stops, families are forced to quickly spend down their accrued savings balances on everyday living expenses. Once savings are depleted, it can be nearly impossible to stay away from getting loans to fund life, which can cause serious financial issues for those who do not have an income to repay borrowed funds. Unemployment then leads to outstanding credit card and personal loan debts that end up in default, perpetuating financial concerns even further.
<h2>Bankruptcy</h2>
Bankruptcy takes place when an individual is deemed insolvent either through a voluntary filing or by persuasion of a creditor that has not been paid. Once you are declared bankrupt, each of your creditors are notified and a trustee is appointed to manage your bankruptcy case. The appointed trustee is tasked with selling your assets in order to fulfill your outstanding debt obligations. He or she will also mandate contributions directly from your income once you start earning over a certain amount each month. Additionally, the trustee will investigate all of your financial affairs in order to recover physical assets such as property as well as money that has been transferred to someone else for inadequate consideration.

The process of going bankrupt can last for up to three years, and will negatively affect your credit file and will be of public record for 7 to 10 years. There are specific restrictions you are beholden to, such as obtaining permission from your trustee to travel overseas, and you are unable to be a director of any company. In order to avoid these negative consequences, it may be beneficial to consider a debt agreement.

A debt agreement is a formal contract between you and your creditors that allows you to repay a single monthly payment over time. A portion of your debt is written off and all interest and charges are frozen, providing an easier way to pay back your creditors. Debt agreements do not require selling your assets or the need to appoint a trustee, and there are far fewer restrictions than when one goes bankrupt. An individual can avoid going bankrupt by electing instead for a debt agreement for unsecured debts, and is able to return to a place of financial health after completing the agreement.",,"2015-03-09 00:00:00","bankruptcy-from-unemployment-and-debts","diane","publish",,,"open","open","Debt Agreement,Bankruptcy","credit card debt help,debt agreements",,"1317||1317||1317","inactive","default","default","yes","default",,"no","repeat","linkzoom","no","default","repeat","default","default","default","yes","default","default","default","no","default","no","repeat","0","0",,"Blog Sidebar",
"Australian budget – Possible record high taxes to balance the budget","407","The Intergenerational Report released on March 5<sup>th</sup>, showed that at the current payment levels, the <a title=""Intergenerational Report: Australians could face record taxes - News.com.au"" href=""http://www.news.com.au/finance/economy/australians-will-work-longer-and-could-face-taxes-at-record-levels-to-balance-the-budget-an-intergenerational-report-claims/story-fn84fgcm-1227249042815"" target=""_blank"" rel=""noopener noreferrer"">Australian budget deficit will reach record highs in forty years</a>. The total net debt would be $2.6 trillion by 2054-55. That is 57.2 percent of projected annual incomes, estimated to be $117,300 in 2055. Such a record high debt to GDP ratio translates into record higher taxes for all tax brackets. Reforms proposed by the Coalition government would, if all were implemented, reduce the deficit to null by 2031-32 and actually deliver a budget surplus by 2054-55.
<h2>The Intergenerational Report</h2>
The Intergenerational Report comes every five years to show how current economic policies will impact financial outcomes over the next forty years in an effort to discourage burdening the future generations with today’s poor fiscal decisions.  The report does take into account the growing portion of the population that will be over the age of 65 as well as the extending life span of the average Australian. To help combat the possible future deficit, older Australians are suggested to re-enter or remain in the workforce and continue to work longer to help boost the economy. Another suggested solution would be to raise taxes but this is touted as discouraging to investment and workforce participation that would depress economic growth.

The Coalition government’s treasurer, Joe Hockey, believes that technology and innovation will spur the economy and that a new generation of small business owners along with tax breaks will be the cure to the future of the Australian budget deficit. Rival political parties have said the timing, two months before Joe Hockey is to deliver the federal budget, is a political stunt. Former Labor treasurer, Wayne Swan, was quick to point out that the government only had a deficit of $30.1 billion when he left office.
<h2>Australian Budget Deficit</h2>
Whether or not the Intergenerational Report is politically geared, the growing Australian budget deficit must be addressed and cutting payments, raising taxes or a combination of the two along with increased workforce participation will be proposed in the coming federal budget. Forty years from now Australians will have to deal with results the current government’s economic policies hand down. A balanced budget can be possible if the Coalition gets its payment cuts implemented but it will not be easy. Hopefully the next Intergenerational Report due in 2020 will paint a better picture for Australia’s future taxpayers.",,"2015-03-16 00:00:00","australian-budget-record-high-taxes","diane","publish",,,"open","open","Debt Help","news,save money,spend less",,"863","inactive","default","default","yes","default",,"no","repeat","linkzoom","no","default","repeat","default","default","default","yes","default","default","default","no","default","no","repeat","0","0",,"Blog Sidebar",
"Australian households need better money management","409","According to a recent report, Australians hold the <a title=""Australian households have largest debts - Yahoo Finance"" href=""https://au.finance.yahoo.com/news/australian-households-have-largest-debts-in-the-world-053528607.html"" target=""_blank"" rel=""noopener noreferrer"">greatest amount of household debt</a> than any other country in the entire world. Household debt averages around 130 per cent of the national GDP, leaving borrowers at high risk should another economic downturn take place in the near future. The rising amount of debt in recent years is attributed to a number of factors, including the pressure to buy personal real estate at an early age as well as common misconceptions relating to the management of finances and repayment of debt over time. For many households, it is clear that better money management is necessary to reduce the level of financial exposure that debt creates.
<h2>Money management guideline</h2>
Money management comes in a variety of forms, but for those struggling to keep up with debt obligations each month, creating a plan is the best place to start. Individuals can begin by budgeting out what they can afford each month based on their required living expenses and repayment on debts owed. It is important to be realistic when going through this process, and to employ the help of a professional budget planning expert or a financial expert if you are finding it difficult to create a plan on your own.

Once you have determined how much you can afford, it is beneficial to contact your creditors that you are either unable to pay the amount regularly or that you might have late payments in the near future. Creditors are often willing to work with borrowers to establish repayment plans when financial hardship arises, but the process is much easier on both parties when it is started early. Make sure to take notes on the terms of the new repayment agreement if one is offered, and be willing to sacrifice other monthly spending if necessary.

If you are concerned that you are beyond fixing your money management issues alone, it may be necessary to contact a professional in the field of debt negotiation. There are experts all over Australia that have the required understanding of financial hardship that is necessary in creating a smart money management plan. These professionals can help you develop your repayment plan based on your monthly budget, and can negotiate your new agreement with creditors directly. They are also able to assist you with understanding your options surrounding debt agreements as an alternative to bankruptcy.

If you have found yourself in a place where you are unable to manage your debt obligations each month, use these steps to get back on track. Analysing your budget, developing a plan and working directly with a <a title=""Australian Debt Agreements - Financial planning specialists"" href=""/"">debt solutions</a> provider may be just what you need to get your financial standing in order.",,"2015-03-24 00:00:00","australians-need-better-money-management","diane","publish",,,"open","open","Debt Solutions","avoid bankruptcy,Debt Help",,"841","inactive","default","default","yes","default",,"no","repeat","linkzoom","no","default","repeat","default","default","default","yes","default","default","default","no","default","no","repeat","0","0",,"Blog Sidebar",
"Think twice before you share bank accounts","411","Before you jump into that joint bank accounts band wagon, you have to consider other things beyond establishing love and trust by having shared finances. When you unite with someone does that mean you have to give up being an individual in some aspects? This has always been a heatedly debated topic. Should you join accounts just to prove your love and trust? Or is it possible to keep separate accounts and still be happily married. Surprisingly, joint bank accounts have often been the cause of marital discord and all the more reason for distrust and quarrel.
<h2>Sharing bank accounts: for richer or poorer</h2>
Prior to tying the knot, you have always been responsible for your finances; deciding solely on what to buy and what not. Now that you are married, your finances take a sharp turn and you now need to consider your partner. The two of you will have to buy shared things like furniture, perhaps a car or even a house. This is something serious that can put a dent on your finances. Expenses like this should be shared equally between you two unless the one is more financially stable and willing to share more. Does this mean you should share a bank account? Well, the answer is both a yes and a no.

A bank account that you can both have access to can be a good thing but only to a certain extent. You can both agree that this is an account that you can use to pay house bills and funds that you can use to purchase shared properties and items. The funds from this account can come from wedding gifts and later on each partner can deposit the same amount as a savings for future purchases. This is perfectly fine as long as both partners agree to the limitations this account has.  Check you finances together and decide how much you need to put into this account on a monthly basis to pay for bills, mortgages and maybe save for romantic getaway in the future.  This can also be your emergency money for life's little surprises.

That said, this joint account is totally separate from your individual bank accounts. It is ideal that even if you are married you still retain financial independence. Your individual accounts can be your own personal money that you can spend as you wish and even on each other without the other partner putting tabs on what you are spending on. It’s not that you don't trust one another or love each other less but financial independence can be a positive thing. In Australia, it is now becoming <a title=""Couples falling out of love with shared accounts - SMH"" href=""http://www.smh.com.au/money/planning/couples-falling-out-of-love-with-shared-accounts-20150208-136qja.html"" target=""_blank"" rel=""noopener noreferrer"">a trend to have one shared account</a> and each still own an individual bank account. This allows them financial liberty while still doing their share in maintaining the shared account.

Often maried couples do not have the same financial capacity and spending values. Most of the time one is a spender and the other is a saver. This can cause marital conflict especially if the saver keeps nagging the spender to spend wisely. Believe it or not, a lot of broken marriages result from bad financial management. Keeping separate bank accounts is more important if one of the partners has a huge sum saved up before the marriage. If you share this account you can end up feeling cheated when the other partner spends bundles on something and this can be the beginning of marital problems down the road. So speak to your financial adviser to better manage shared accounts before you start the entire process.",,"2015-04-02 00:00:00","think-twice-before-you-share-bank-accounts","diane","publish",,,"open","open","Debt Help","help with debt,news,savings,spend less",,"1063","inactive","default","default","yes","default",,"no","repeat","linkzoom","no","default","repeat","default","default","default","yes","default","default","default","no","default","no","repeat","0","0",,"Blog Sidebar",
"Debt relief programs","413","<div class=""col-md-6 col-lg-8"">
<ul>
<li>Struggling financially and can’t seem to make ends meet?</li>
<li>Do you have loans, credit cards and unpaid bills?</li>
<li>Are debt collectors contacting you?</li>
<li>Have you found it impossible to consolidate your debts because the banks say “No”?</li>
<li>Are you longing for a debt-free, stress-free future?</li>
</ul>
If this describes your situation you may be eligible for a solution that will allow you to settle your debts affordably. A Debt Agreement is a formal agreement managed by regulated Debt Agreement Admnistrators; between you and your creditors which does not involve borrowing more money or paying more interest.
<h2><strong>Debt Agreements</strong></h2>
Simply, a Debt Agreement is for people who can’t get a loan, are struggling and want to avoid bankruptcy.

Imagine if you had one affordable repayment drawn every week or fortnight and that payment went straight towards settling your debts.
<ul>
<li>No more calls from debt collectors</li>
<li>No more high interest charges</li>
<li>And for the first time in a long time you will have peace of mind knowing that as long as you maintain your payments you will be debt free in the near future.</li>
</ul>
Remember, a credit card debt of $10,000 at 18.5% pa can take a borrower 62 years and 8 months to repay, if you only make the minimum monthly payment.

On the other hand, a debt agreement will allow you to settle your debts, affordably and in a reasonable timeframe.

A Debt Agreement must be affordable and sustainable, so a thorough budget is necessary. A Debt Agreement is a great solution for those suitable applicants but it’s essential to acknowledge that (like any option) there are benefits and consequences and it’s not a “one size fits all” solution. It’s important to consider your circumstances, the appropriateness of it and have regard to your objectives, financial situation and needs.

With our help, we can guide you through the process and tailor make a solution that will fit your needs.
</div>
<div class=""col-md-6 col-lg-4 form-container"">
[alcapi_contact_form]
</div>
 ",,"2015-04-10 00:00:00","debt-relief-programs","diane","publish",,,"open","open","Debt Help,Debt Solutions","clear debt,Debt Help",,"31713","inactive","default","default","yes","default",,"no","repeat","linkzoom","no","default","repeat","default","default","default","yes","default","default","default","no","default","no","repeat","0","0",,"Blog Sidebar",
"Caution before lending to your children for home purchase","416","[two_third last=""no"" class="""" id=""""][fusion_text]Family ties are strong and most parents want to help out their children whenever they can, even when those kids have grown into adults and need debt help. When it comes time to buy a first home, many people turn to their parents if they do not have enough funds. Parents want to do everything they can to help but just giving money might not be the best thing to do for both their sake.
<h2>Lending to your children</h2>
A down payment on a home is secured in order to make sure that the person buying a home has some stake in the property and the amount of deposit is relative to the price of the home. If parents give their kids the deposit on a house then they might not be helping them as much as they think. By saving up for the deposit on a house, the new home buyer gains an understanding of what it is like to put their hard earned money into a home but it also sets valuable limitations on how big of a home they can buy. If the parents help foot the bill for the down payment by lending them money then the parents might be getting their kids locked into a home that they cannot afford and should have never bought. The child will end up having to get debt help again.

Lending money to children to buy a home has some other potential drawbacks. If the money is actually a loan and not a gift it will be looked at as a loan by the bank and it can make it harder to purchase the house. It is better for everyone if the conditions for the money are set out in a contract so that there is no gray area. If the money is not a loan and is a gift then there is always the potential of that money being totally lost if the house is foreclosed on. In the unfortunate event of a divorce between the child and his or her spouse then the property might be split between the two and the parents inadvertently gave their child's ex-partner a pay day.

If you are a parent considering helping their children with debt, lending money, or gifting money then you should reach out to Australian Debt Agreements for a free consultation to make the smartest financial arrangements and agreements to help your kids have a strong financial future.[/fusion_text][/two_third][one_third last=""yes"" class="""" id=""""][fusion_text][alcapi_contact_form][/fusion_text][/one_third]",,"2015-04-17 00:00:00","caution-lending-to-your-children","diane","publish",,,"open","open","Debt Help","Debt Help,debt problem,save money",,"7301","active","default","default","yes","default",,"no","repeat","linkzoom","no","default","repeat","default","default","default","yes","default","default","default","no","default","no","repeat","0","0",,"Blog Sidebar",
